{ 
    "data" : [
        {
            "@id": "http://localhost:8080/testing",
            "@type": "Person",
            "name": "Test User",
            "inbox": "http://localhost:8080/testing/inbox",
            "outbox": "http://localhost:8080/testing/outbox"
        },

        {
            "@id": "http://localhost:8080/test2",
            "@type": "Person",
            "name": "Testing User 2"
        },

        {
            "@id": "http://localhost:8080/testing/inbox",
            "@type": "OrderedCollection",
            "items": [
                "http://localhost:8080/2",
                "http://localhost:8080/3"
            ]
        },

        {
            "@id": "http://localhost:8080/testing/outbox",
            "@type": "OrderedCollection",
            "items": [
                "http://localhost:8080/1",
                "http://localhost:8080/4"
            ]
        },

        {
            "@id" : "http://localhost:8080/1",
            "@type" : "Note",
            "to": "https://www.w3.org/ns/activitystreams#Public",
            "attributedTo": "http://localhost:8080/testing",
            "summary" : { "en" : "User One" },
            "content" : { "en" : "User One Content" }
        },

        {
            "@id" : "http://localhost:8080/2",
            "to": "https://www.w3.org/ns/activitystreams#Public",
            "attributedTo": "http://localhost:8080/test2",
            "@type" : "Note",
            "inReplyTo": "http://localhost:8080/1",
            "content" : { "en" : "User Two Content" }
        },
        
        {
            "@id" : "http://localhost:8080/3",
            "to": "https://www.w3.org/ns/activitystreams#Public",
            "attributedTo": "http://localhost:8080/testing",
            "inReplyTo": "http://localhost:8080/2",
            "@type" : "Note",
            "summary" : { "en" : "Note Three summary" }
        },
    
        {
            "@id" : "http://localhost:8080/4",
            "to": "https://www.w3.org/ns/activitystreams#Public",
            "@type" : "Note",
            "summary"  : { "fr" : "Should be a French-language summary" },
            "content" : { "fr" : "Should be a French-language content" },
            "attributedTo" : "http://localhost:8080/testing"
        }
    ]
}
